C:\Users\antonio.canelas\Documents\pipeline\src\main\java\com\testautomationguru\container\pages\OrderPage.java
C:\Users\antonio.canelas\Documents\pipeline\src\test\java\com\testautomationguru\container\test\SearchTest.java
C:\Users\antonio.canelas\Documents\pipeline\src\test\java\com\testautomationguru\container\test\OrderTest.java
C:\Users\antonio.canelas\Documents\pipeline\src\test\java\com\testautomationguru\container\test\BaseTest.java
C:\Users\antonio.canelas\Documents\pipeline\src\main\java\com\testautomationguru\container\pages\SearchPage.java
